{"failedCount":1,"prefixedPath":"src\/test\/java\/tests\/feature1\/FirstTestFeature1.feature","packageQualifiedName":"src.test.java.tests.feature1.FirstTestFeature1","loopIndex":-1,"relativePath":"src\/test\/java\/tests\/feature1\/FirstTestFeature1.feature","scenarioResults":[{"sectionIndex":1,"stepResults":[{"result":{"nanos":49685400,"millis":49.6854,"status":"passed"},"step":{"background":true,"line":3,"prefix":"*","index":0,"text":"url \"https:\/\/reqres.in\""}},{"result":{"nanos":692800,"millis":0.6928,"status":"passed"},"step":{"background":true,"line":4,"prefix":"*","index":1,"text":"header Accept = \"application\/json\""}},{"result":{"nanos":344600,"millis":0.3446,"status":"passed"},"step":{"line":19,"prefix":"Given","index":0,"text":"path \"\/api\/users\""}},{"result":{"nanos":1523500,"millis":1.5235,"status":"passed"},"step":{"line":20,"prefix":"And","index":1,"text":"param page = 2"}},{"result":{"nanos":925083200,"millis":925.0832,"status":"passed"},"step":{"line":21,"prefix":"When","index":2,"text":"method GET"},"stepLog":"21:28:00.212 request:\n1 > GET https:\/\/reqres.in\/api\/users?page=2\n1 > Accept: application\/json\n1 > Host: reqres.in\n1 > Connection: Keep-Alive\n1 > User-Agent: Apache-HttpClient\/4.5.13 (Java\/11.0.8)\n1 > Accept-Encoding: gzip,deflate\n\n\n21:28:00.764 response time in milliseconds: 551\n1 < 200\n1 < Date: Wed, 11 Aug 2021 14:28:00 GMT\n1 < Content-Type: application\/json; charset=utf-8\n1 < Transfer-Encoding: chunked\n1 < Connection: keep-alive\n1 < X-Powered-By: Express\n1 < Access-Control-Allow-Origin: *\n1 < Etag: W\/\"406-ut0vzoCuidvyMf8arZpMpJ6ZRDw\"\n1 < Via: 1.1 vegur\n1 < Cache-Control: max-age=14400\n1 < CF-Cache-Status: HIT\n1 < Age: 3210\n1 < Expect-CT: max-age=604800, report-uri=\"https:\/\/report-uri.cloudflare.com\/cdn-cgi\/beacon\/expect-ct\"\n1 < Report-To: {\"endpoints\":[{\"url\":\"https:\\\/\\\/a.nel.cloudflare.com\\\/report\\\/v3?s=xZyaRNa9Oi3Cajk6s6ss%2BsdfSvTMpz9DtMxzjVJHFaEssuhatr4LRDzSo%2BepgVPfHltMw5u9GcNpQHfMp16BY8hejyfpdgj9yO1UjscjBm6zh5mc%2FRItA8EwuLI%3D\"}],\"group\":\"cf-nel\",\"max_age\":604800}\n1 < NEL: {\"success_fraction\":0,\"report_to\":\"cf-nel\",\"max_age\":604800}\n1 < Vary: Accept-Encoding\n1 < Server: cloudflare\n1 < CF-RAY: 67d225e04fbd4aa1-SIN\n1 < alt-svc: h3-27=\":443\"; ma=86400, h3-28=\":443\"; ma=86400, h3-29=\":443\"; ma=86400, h3=\":443\"; ma=86400\n{\"page\":2,\"per_page\":6,\"total\":12,\"total_pages\":2,\"data\":[{\"id\":7,\"email\":\"michael.lawson@reqres.in\",\"first_name\":\"Michael\",\"last_name\":\"Lawson\",\"avatar\":\"https:\/\/reqres.in\/img\/faces\/7-image.jpg\"},{\"id\":8,\"email\":\"lindsay.ferguson@reqres.in\",\"first_name\":\"Lindsay\",\"last_name\":\"Ferguson\",\"avatar\":\"https:\/\/reqres.in\/img\/faces\/8-image.jpg\"},{\"id\":9,\"email\":\"tobias.funke@reqres.in\",\"first_name\":\"Tobias\",\"last_name\":\"Funke\",\"avatar\":\"https:\/\/reqres.in\/img\/faces\/9-image.jpg\"},{\"id\":10,\"email\":\"byron.fields@reqres.in\",\"first_name\":\"Byron\",\"last_name\":\"Fields\",\"avatar\":\"https:\/\/reqres.in\/img\/faces\/10-image.jpg\"},{\"id\":11,\"email\":\"george.edwards@reqres.in\",\"first_name\":\"George\",\"last_name\":\"Edwards\",\"avatar\":\"https:\/\/reqres.in\/img\/faces\/11-image.jpg\"},{\"id\":12,\"email\":\"rachel.howell@reqres.in\",\"first_name\":\"Rachel\",\"last_name\":\"Howell\",\"avatar\":\"https:\/\/reqres.in\/img\/faces\/12-image.jpg\"}],\"support\":{\"url\":\"https:\/\/reqres.in\/#support-heading\",\"text\":\"To keep ReqRes free, contributions towards server costs are appreciated!\"}}\n"},{"result":{"nanos":17400,"millis":0.0174,"status":"passed"},"step":{"line":22,"prefix":"Then","index":3,"text":"status 200"}},{"result":{"nanos":0,"errorMessage":"no step-definition method match found for: Match response.data[0].first_name != null\nsrc\/test\/java\/tests\/feature1\/FirstTestFeature1.feature:23","millis":0.0,"status":"failed"},"step":{"line":23,"prefix":"And","index":4,"text":"Match response.data[0].first_name != null"},"stepLog":"21:28:00.781 src\/test\/java\/tests\/feature1\/FirstTestFeature1.feature:23\nAnd Match response.data[0].first_name != null\nno step-definition method match found for: Match response.data[0].first_name != null\nsrc\/test\/java\/tests\/feature1\/FirstTestFeature1.feature:23\n"},{"result":{"nanos":0,"millis":0.0,"status":"skipped"},"step":{"line":24,"prefix":"And","index":5,"text":"Assert response.data.length == 6"}},{"result":{"nanos":0,"millis":0.0,"status":"skipped"},"step":{"line":25,"prefix":"And","index":6,"text":"match $.data[1].id == 8"}},{"result":{"nanos":0,"millis":0.0,"status":"skipped"},"step":{"line":26,"prefix":"And","index":7,"text":"match $.data[3].last_name == \"Fields\""}}],"line":18,"description":"","durationMillis":977.3469,"failed":true,"error":"no step-definition method match found for: Match response.data[0].first_name != null\nsrc\/test\/java\/tests\/feature1\/FirstTestFeature1.feature:23","executorName":"main","name":"Test a GET sample API 2","startTime":1628692079796,"refId":"[2:18]","endTime":1628692080781,"exampleIndex":-1}],"callDepth":0,"name":"Sample API Test","description":"","resultDate":"2021-08-11 09:28:00 PM","durationMillis":977.3469,"passedCount":0}