{"failedCount":0,"prefixedPath":"classpath:tests\/feature1\/FirstTest.feature","packageQualifiedName":"tests.feature1.FirstTest","loopIndex":-1,"relativePath":"tests\/feature1\/FirstTest.feature","scenarioResults":[{"sectionIndex":0,"stepResults":[{"result":{"nanos":53677700,"millis":53.6777,"status":"passed"},"step":{"line":3,"prefix":"Given","index":0,"text":"url \"https:\/\/reqres.in\/api\/users?page=2\""}},{"result":{"nanos":786939900,"millis":786.9399,"status":"passed"},"step":{"line":4,"prefix":"When","index":1,"text":"method GET"},"stepLog":"20:41:42.233 request:\n1 > GET https:\/\/reqres.in\/api\/users?page=2\n1 > Host: reqres.in\n1 > Connection: Keep-Alive\n1 > User-Agent: Apache-HttpClient\/4.5.13 (Java\/11.0.8)\n1 > Accept-Encoding: gzip,deflate\n\n\n20:41:42.639 response time in milliseconds: 406\n1 < 200\n1 < Date: Wed, 11 Aug 2021 13:41:42 GMT\n1 < Content-Type: application\/json; charset=utf-8\n1 < Transfer-Encoding: chunked\n1 < Connection: keep-alive\n1 < X-Powered-By: Express\n1 < Access-Control-Allow-Origin: *\n1 < Etag: W\/\"406-ut0vzoCuidvyMf8arZpMpJ6ZRDw\"\n1 < Via: 1.1 vegur\n1 < Cache-Control: max-age=14400\n1 < CF-Cache-Status: HIT\n1 < Age: 432\n1 < Expect-CT: max-age=604800, report-uri=\"https:\/\/report-uri.cloudflare.com\/cdn-cgi\/beacon\/expect-ct\"\n1 < Report-To: {\"endpoints\":[{\"url\":\"https:\\\/\\\/a.nel.cloudflare.com\\\/report\\\/v3?s=vgTxj6FlCMYDM5%2FKRy2ppC7sdZ4EGt99BSt5xZKo5SEYqAhNtzezW2Y6W15no%2FJ8gjjwNXHrq%2BHlSxLp%2Bo7XLQpID%2B%2B1f5CYdDD2hZtGDy%2BEZ9WcQ%2Fgaq98huEg%3D\"}],\"group\":\"cf-nel\",\"max_age\":604800}\n1 < NEL: {\"success_fraction\":0,\"report_to\":\"cf-nel\",\"max_age\":604800}\n1 < Vary: Accept-Encoding\n1 < Server: cloudflare\n1 < CF-RAY: 67d1e20cfa7346e5-SIN\n1 < alt-svc: h3-27=\":443\"; ma=86400, h3-28=\":443\"; ma=86400, h3-29=\":443\"; ma=86400, h3=\":443\"; ma=86400\n{\"page\":2,\"per_page\":6,\"total\":12,\"total_pages\":2,\"data\":[{\"id\":7,\"email\":\"michael.lawson@reqres.in\",\"first_name\":\"Michael\",\"last_name\":\"Lawson\",\"avatar\":\"https:\/\/reqres.in\/img\/faces\/7-image.jpg\"},{\"id\":8,\"email\":\"lindsay.ferguson@reqres.in\",\"first_name\":\"Lindsay\",\"last_name\":\"Ferguson\",\"avatar\":\"https:\/\/reqres.in\/img\/faces\/8-image.jpg\"},{\"id\":9,\"email\":\"tobias.funke@reqres.in\",\"first_name\":\"Tobias\",\"last_name\":\"Funke\",\"avatar\":\"https:\/\/reqres.in\/img\/faces\/9-image.jpg\"},{\"id\":10,\"email\":\"byron.fields@reqres.in\",\"first_name\":\"Byron\",\"last_name\":\"Fields\",\"avatar\":\"https:\/\/reqres.in\/img\/faces\/10-image.jpg\"},{\"id\":11,\"email\":\"george.edwards@reqres.in\",\"first_name\":\"George\",\"last_name\":\"Edwards\",\"avatar\":\"https:\/\/reqres.in\/img\/faces\/11-image.jpg\"},{\"id\":12,\"email\":\"rachel.howell@reqres.in\",\"first_name\":\"Rachel\",\"last_name\":\"Howell\",\"avatar\":\"https:\/\/reqres.in\/img\/faces\/12-image.jpg\"}],\"support\":{\"url\":\"https:\/\/reqres.in\/#support-heading\",\"text\":\"To keep ReqRes free, contributions towards server costs are appreciated!\"}}\n"},{"result":{"nanos":18100,"millis":0.0181,"status":"passed"},"step":{"line":5,"prefix":"Then","index":2,"text":"status 200"}}],"executorName":"main","line":2,"name":"Test a GET sample API","description":"","durationMillis":840.6357,"startTime":1628689301812,"failed":false,"refId":"[1:2]","endTime":1628689302662,"exampleIndex":-1},{"sectionIndex":1,"stepResults":[{"result":{"nanos":530000,"millis":0.53,"status":"passed"},"step":{"line":8,"prefix":"Given","index":0,"text":"url \"https:\/\/reqres.in\/api\/users\""}},{"result":{"nanos":1057099400,"millis":1057.0994,"status":"passed"},"step":{"line":9,"prefix":"When","index":1,"text":"method POST"},"stepLog":"20:41:42.670 request:\n1 > POST https:\/\/reqres.in\/api\/users\n1 > Host: reqres.in\n1 > Connection: Keep-Alive\n1 > User-Agent: Apache-HttpClient\/4.5.13 (Java\/11.0.8)\n1 > Accept-Encoding: gzip,deflate\n\n\n20:41:43.725 response time in milliseconds: 1055\n1 < 201\n1 < Date: Wed, 11 Aug 2021 13:41:43 GMT\n1 < Content-Type: application\/json; charset=utf-8\n1 < Content-Length: 51\n1 < Connection: keep-alive\n1 < x-powered-by: Express\n1 < access-control-allow-origin: *\n1 < etag: W\/\"33-VjygXWEy0G0GvyreqrsmbeF+eEw\"\n1 < via: 1.1 vegur\n1 < CF-Cache-Status: DYNAMIC\n1 < Expect-CT: max-age=604800, report-uri=\"https:\/\/report-uri.cloudflare.com\/cdn-cgi\/beacon\/expect-ct\"\n1 < Report-To: {\"endpoints\":[{\"url\":\"https:\\\/\\\/a.nel.cloudflare.com\\\/report\\\/v3?s=UP5iSXAR6qzPqH58ApOw3lgFyVxE7BoX4Mbh8PqSYIvaenq5IXzGOrg7x%2B%2BX6u5y5z58bSrniyh9ymKmQ9oGF7Cw6Q7ksf06ttgFC%2BxIxWgza658pKtQKUgx%2F0Q%3D\"}],\"group\":\"cf-nel\",\"max_age\":604800}\n1 < NEL: {\"success_fraction\":0,\"report_to\":\"cf-nel\",\"max_age\":604800}\n1 < Server: cloudflare\n1 < CF-RAY: 67d1e2100a0e0ab8-NRT\n1 < alt-svc: h3-27=\":443\"; ma=86400, h3-28=\":443\"; ma=86400, h3-29=\":443\"; ma=86400, h3=\":443\"; ma=86400\n{\"id\":\"588\",\"createdAt\":\"2021-08-11T13:41:43.438Z\"}\n"},{"result":{"nanos":6400,"millis":0.0064,"status":"passed"},"step":{"line":10,"prefix":"Then","index":2,"text":"status 201"}}],"executorName":"main","line":7,"name":"Test a Post sample API","description":"","durationMillis":1057.6358,"startTime":1628689302670,"failed":false,"refId":"[2:7]","endTime":1628689303725,"exampleIndex":-1}],"callDepth":0,"name":"Sample API Test","description":"","resultDate":"2021-08-11 08:41:43 PM","durationMillis":1898.2715,"passedCount":2}