{"failedCount":0,"prefixedPath":"classpath:tests\/feature2\/FirstTestFeature2.feature","packageQualifiedName":"tests.feature2.FirstTestFeature2","loopIndex":-1,"relativePath":"tests\/feature2\/FirstTestFeature2.feature","scenarioResults":[{"sectionIndex":0,"stepResults":[{"result":{"nanos":673500,"millis":0.6735,"status":"passed"},"step":{"line":3,"prefix":"Given","index":0,"text":"url \"https:\/\/reqres.in\/api\/users?page=2\""}},{"result":{"nanos":292675400,"millis":292.6754,"status":"passed"},"step":{"line":4,"prefix":"When","index":1,"text":"method GET"},"stepLog":"20:44:49.725 request:\n1 > GET https:\/\/reqres.in\/api\/users?page=2\n1 > Host: reqres.in\n1 > Connection: Keep-Alive\n1 > User-Agent: Apache-HttpClient\/4.5.13 (Java\/11.0.8)\n1 > Accept-Encoding: gzip,deflate\n\n\n20:44:50.016 response time in milliseconds: 290\n1 < 200\n1 < Date: Wed, 11 Aug 2021 13:44:49 GMT\n1 < Content-Type: application\/json; charset=utf-8\n1 < Transfer-Encoding: chunked\n1 < Connection: keep-alive\n1 < X-Powered-By: Express\n1 < Access-Control-Allow-Origin: *\n1 < Etag: W\/\"406-ut0vzoCuidvyMf8arZpMpJ6ZRDw\"\n1 < Via: 1.1 vegur\n1 < Cache-Control: max-age=14400\n1 < CF-Cache-Status: HIT\n1 < Age: 619\n1 < Expect-CT: max-age=604800, report-uri=\"https:\/\/report-uri.cloudflare.com\/cdn-cgi\/beacon\/expect-ct\"\n1 < Report-To: {\"endpoints\":[{\"url\":\"https:\\\/\\\/a.nel.cloudflare.com\\\/report\\\/v3?s=L1KxQwFqBkHVg4RHAMSmPZGvR%2F4OukPxTjj1GdT0f0sESbXlow30ZEysXBA%2F1Qn82TXb2U7%2BEN1p%2FpDAvGt%2BSWaYsM9DdSt%2BfiABI5wSThTQ3klIPPcByn56Q3M%3D\"}],\"group\":\"cf-nel\",\"max_age\":604800}\n1 < NEL: {\"success_fraction\":0,\"report_to\":\"cf-nel\",\"max_age\":604800}\n1 < Vary: Accept-Encoding\n1 < Server: cloudflare\n1 < CF-RAY: 67d1e6a02e1e4973-SIN\n1 < alt-svc: h3-27=\":443\"; ma=86400, h3-28=\":443\"; ma=86400, h3-29=\":443\"; ma=86400, h3=\":443\"; ma=86400\n{\"page\":2,\"per_page\":6,\"total\":12,\"total_pages\":2,\"data\":[{\"id\":7,\"email\":\"michael.lawson@reqres.in\",\"first_name\":\"Michael\",\"last_name\":\"Lawson\",\"avatar\":\"https:\/\/reqres.in\/img\/faces\/7-image.jpg\"},{\"id\":8,\"email\":\"lindsay.ferguson@reqres.in\",\"first_name\":\"Lindsay\",\"last_name\":\"Ferguson\",\"avatar\":\"https:\/\/reqres.in\/img\/faces\/8-image.jpg\"},{\"id\":9,\"email\":\"tobias.funke@reqres.in\",\"first_name\":\"Tobias\",\"last_name\":\"Funke\",\"avatar\":\"https:\/\/reqres.in\/img\/faces\/9-image.jpg\"},{\"id\":10,\"email\":\"byron.fields@reqres.in\",\"first_name\":\"Byron\",\"last_name\":\"Fields\",\"avatar\":\"https:\/\/reqres.in\/img\/faces\/10-image.jpg\"},{\"id\":11,\"email\":\"george.edwards@reqres.in\",\"first_name\":\"George\",\"last_name\":\"Edwards\",\"avatar\":\"https:\/\/reqres.in\/img\/faces\/11-image.jpg\"},{\"id\":12,\"email\":\"rachel.howell@reqres.in\",\"first_name\":\"Rachel\",\"last_name\":\"Howell\",\"avatar\":\"https:\/\/reqres.in\/img\/faces\/12-image.jpg\"}],\"support\":{\"url\":\"https:\/\/reqres.in\/#support-heading\",\"text\":\"To keep ReqRes free, contributions towards server costs are appreciated!\"}}\n"},{"result":{"nanos":9200,"millis":0.0092,"status":"passed"},"step":{"line":5,"prefix":"Then","index":2,"text":"status 200"}}],"executorName":"main","line":2,"name":"Test a GET sample API","description":"","durationMillis":293.3581,"startTime":1628689489722,"failed":false,"refId":"[1:2]","endTime":1628689490017,"exampleIndex":-1},{"sectionIndex":1,"stepResults":[{"result":{"nanos":597900,"millis":0.5979,"status":"passed"},"step":{"line":8,"prefix":"Given","index":0,"text":"url \"https:\/\/reqres.in\/api\/users\""}},{"result":{"nanos":758921500,"millis":758.9215,"status":"passed"},"step":{"line":9,"prefix":"When","index":1,"text":"method POST"},"stepLog":"20:44:50.024 request:\n1 > POST https:\/\/reqres.in\/api\/users\n1 > Host: reqres.in\n1 > Connection: Keep-Alive\n1 > User-Agent: Apache-HttpClient\/4.5.13 (Java\/11.0.8)\n1 > Accept-Encoding: gzip,deflate\n\n\n20:44:50.780 response time in milliseconds: 756\n1 < 201\n1 < Date: Wed, 11 Aug 2021 13:44:50 GMT\n1 < Content-Type: application\/json; charset=utf-8\n1 < Content-Length: 51\n1 < Connection: keep-alive\n1 < x-powered-by: Express\n1 < access-control-allow-origin: *\n1 < etag: W\/\"33-C6ehcXMw+59VDeZyjF4143PApng\"\n1 < via: 1.1 vegur\n1 < CF-Cache-Status: DYNAMIC\n1 < Expect-CT: max-age=604800, report-uri=\"https:\/\/report-uri.cloudflare.com\/cdn-cgi\/beacon\/expect-ct\"\n1 < Report-To: {\"endpoints\":[{\"url\":\"https:\\\/\\\/a.nel.cloudflare.com\\\/report\\\/v3?s=zSQNL1dVeG1PBuxy%2B36w9FLmj5%2FtL9Bap4wZORilJeuiGVW5AaTs%2B66IpOiX%2BwaON3COhklEJyGgolzbFig5uok2%2FN8YLyBe%2FmOsubLjm80KXkpxz4DRxI0aGao%3D\"}],\"group\":\"cf-nel\",\"max_age\":604800}\n1 < NEL: {\"success_fraction\":0,\"report_to\":\"cf-nel\",\"max_age\":604800}\n1 < Server: cloudflare\n1 < CF-RAY: 67d1e6a1ce17567c-SIN\n1 < alt-svc: h3-27=\":443\"; ma=86400, h3-28=\":443\"; ma=86400, h3-29=\":443\"; ma=86400, h3=\":443\"; ma=86400\n{\"id\":\"442\",\"createdAt\":\"2021-08-11T13:44:50.518Z\"}\n"},{"result":{"nanos":6300,"millis":0.0063,"status":"passed"},"step":{"line":10,"prefix":"Then","index":2,"text":"status 201"}}],"executorName":"main","line":7,"name":"Test a Post sample API","description":"","durationMillis":759.5257,"startTime":1628689490021,"failed":false,"refId":"[2:7]","endTime":1628689490781,"exampleIndex":-1}],"callDepth":0,"name":"Sample API Test","description":"","resultDate":"2021-08-11 08:44:50 PM","durationMillis":1052.8838,"passedCount":2}