{"failedCount":0,"prefixedPath":"src\/test\/java\/tests\/feature1\/FirstTestFeature1.feature","packageQualifiedName":"src.test.java.tests.feature1.FirstTestFeature1","loopIndex":-1,"relativePath":"src\/test\/java\/tests\/feature1\/FirstTestFeature1.feature","scenarioResults":[{"sectionIndex":1,"stepResults":[{"result":{"nanos":107853700,"millis":107.8537,"status":"passed"},"step":{"background":true,"line":3,"prefix":"*","index":0,"text":"url \"https:\/\/reqres.in\""}},{"result":{"nanos":692100,"millis":0.6921,"status":"passed"},"step":{"background":true,"line":4,"prefix":"*","index":1,"text":"header Accept = \"application\/json\""}},{"result":{"nanos":416500,"millis":0.4165,"status":"passed"},"step":{"line":17,"prefix":"Given","index":0,"text":"path \"\/api\/users\""}},{"result":{"nanos":1739800,"millis":1.7398,"status":"passed"},"step":{"line":18,"prefix":"And","index":1,"text":"param page = 2"}},{"result":{"nanos":1012212100,"millis":1012.2121,"status":"passed"},"step":{"line":19,"prefix":"When","index":2,"text":"method GET"},"stepLog":"21:16:30.534 request:\n1 > GET https:\/\/reqres.in\/api\/users?page=2\n1 > Accept: application\/json\n1 > Host: reqres.in\n1 > Connection: Keep-Alive\n1 > User-Agent: Apache-HttpClient\/4.5.13 (Java\/11.0.8)\n1 > Accept-Encoding: gzip,deflate\n\n\n21:16:30.982 response time in milliseconds: 446\n1 < 200\n1 < Date: Wed, 11 Aug 2021 14:16:30 GMT\n1 < Content-Type: application\/json; charset=utf-8\n1 < Transfer-Encoding: chunked\n1 < Connection: keep-alive\n1 < x-powered-by: Express\n1 < access-control-allow-origin: *\n1 < etag: W\/\"406-ut0vzoCuidvyMf8arZpMpJ6ZRDw\"\n1 < via: 1.1 vegur\n1 < Cache-Control: max-age=14400\n1 < CF-Cache-Status: HIT\n1 < Age: 1115\n1 < Expect-CT: max-age=604800, report-uri=\"https:\/\/report-uri.cloudflare.com\/cdn-cgi\/beacon\/expect-ct\"\n1 < Report-To: {\"endpoints\":[{\"url\":\"https:\\\/\\\/a.nel.cloudflare.com\\\/report\\\/v3?s=kHq8kTV0B9beyjq%2BsFDNRfDGFzV50MsWlyr7kGs3NRU0JfMCyOBuiuIZTGf97T23yl204fV4V8d0QgQx8bdhUNLDKu%2BUDLMx%2FITuWgiptTl0CgqFgsGdet3MPxk%3D\"}],\"group\":\"cf-nel\",\"max_age\":604800}\n1 < NEL: {\"success_fraction\":0,\"report_to\":\"cf-nel\",\"max_age\":604800}\n1 < Vary: Accept-Encoding\n1 < Server: cloudflare\n1 < CF-RAY: 67d2150929f54c23-SIN\n1 < alt-svc: h3-27=\":443\"; ma=86400, h3-28=\":443\"; ma=86400, h3-29=\":443\"; ma=86400, h3=\":443\"; ma=86400\n{\"page\":2,\"per_page\":6,\"total\":12,\"total_pages\":2,\"data\":[{\"id\":7,\"email\":\"michael.lawson@reqres.in\",\"first_name\":\"Michael\",\"last_name\":\"Lawson\",\"avatar\":\"https:\/\/reqres.in\/img\/faces\/7-image.jpg\"},{\"id\":8,\"email\":\"lindsay.ferguson@reqres.in\",\"first_name\":\"Lindsay\",\"last_name\":\"Ferguson\",\"avatar\":\"https:\/\/reqres.in\/img\/faces\/8-image.jpg\"},{\"id\":9,\"email\":\"tobias.funke@reqres.in\",\"first_name\":\"Tobias\",\"last_name\":\"Funke\",\"avatar\":\"https:\/\/reqres.in\/img\/faces\/9-image.jpg\"},{\"id\":10,\"email\":\"byron.fields@reqres.in\",\"first_name\":\"Byron\",\"last_name\":\"Fields\",\"avatar\":\"https:\/\/reqres.in\/img\/faces\/10-image.jpg\"},{\"id\":11,\"email\":\"george.edwards@reqres.in\",\"first_name\":\"George\",\"last_name\":\"Edwards\",\"avatar\":\"https:\/\/reqres.in\/img\/faces\/11-image.jpg\"},{\"id\":12,\"email\":\"rachel.howell@reqres.in\",\"first_name\":\"Rachel\",\"last_name\":\"Howell\",\"avatar\":\"https:\/\/reqres.in\/img\/faces\/12-image.jpg\"}],\"support\":{\"url\":\"https:\/\/reqres.in\/#support-heading\",\"text\":\"To keep ReqRes free, contributions towards server costs are appreciated!\"}}\n"},{"result":{"nanos":32400,"millis":0.0324,"status":"passed"},"step":{"line":20,"prefix":"Then","index":3,"text":"status 200"}},{"result":{"nanos":66097500,"millis":66.0975,"status":"passed"},"step":{"line":21,"prefix":"And","index":4,"text":"print response"},"stepLog":"21:16:31.070 [print] {\n  \"page\": 2,\n  \"per_page\": 6,\n  \"total\": 12,\n  \"total_pages\": 2,\n  \"data\": [\n    {\n      \"id\": 7,\n      \"email\": \"michael.lawson@reqres.in\",\n      \"first_name\": \"Michael\",\n      \"last_name\": \"Lawson\",\n      \"avatar\": \"https:\/\/reqres.in\/img\/faces\/7-image.jpg\"\n    },\n    {\n      \"id\": 8,\n      \"email\": \"lindsay.ferguson@reqres.in\",\n      \"first_name\": \"Lindsay\",\n      \"last_name\": \"Ferguson\",\n      \"avatar\": \"https:\/\/reqres.in\/img\/faces\/8-image.jpg\"\n    },\n    {\n      \"id\": 9,\n      \"email\": \"tobias.funke@reqres.in\",\n      \"first_name\": \"Tobias\",\n      \"last_name\": \"Funke\",\n      \"avatar\": \"https:\/\/reqres.in\/img\/faces\/9-image.jpg\"\n    },\n    {\n      \"id\": 10,\n      \"email\": \"byron.fields@reqres.in\",\n      \"first_name\": \"Byron\",\n      \"last_name\": \"Fields\",\n      \"avatar\": \"https:\/\/reqres.in\/img\/faces\/10-image.jpg\"\n    },\n    {\n      \"id\": 11,\n      \"email\": \"george.edwards@reqres.in\",\n      \"first_name\": \"George\",\n      \"last_name\": \"Edwards\",\n      \"avatar\": \"https:\/\/reqres.in\/img\/faces\/11-image.jpg\"\n    },\n    {\n      \"id\": 12,\n      \"email\": \"rachel.howell@reqres.in\",\n      \"first_name\": \"Rachel\",\n      \"last_name\": \"Howell\",\n      \"avatar\": \"https:\/\/reqres.in\/img\/faces\/12-image.jpg\"\n    }\n  ],\n  \"support\": {\n    \"url\": \"https:\/\/reqres.in\/#support-heading\",\n    \"text\": \"To keep ReqRes free, contributions towards server costs are appreciated!\"\n  }\n}\n \n"},{"result":{"nanos":1438600,"millis":1.4386,"status":"passed"},"step":{"line":22,"prefix":"And","index":5,"text":"print responseStatus"},"stepLog":"21:16:31.072 [print] 200 \n"},{"result":{"nanos":5855400,"millis":5.8554,"status":"passed"},"step":{"line":23,"prefix":"And","index":6,"text":"print responseTime"},"stepLog":"21:16:31.078 [print] 446 \n"},{"result":{"nanos":3713400,"millis":3.7134,"status":"passed"},"step":{"line":24,"prefix":"And","index":7,"text":"print responseHeaders"},"stepLog":"21:16:31.082 [print] {\n  \"Date\": [\n    \"Wed, 11 Aug 2021 14:16:30 GMT\"\n  ],\n  \"Content-Type\": [\n    \"application\/json; charset=utf-8\"\n  ],\n  \"Transfer-Encoding\": [\n    \"chunked\"\n  ],\n  \"Connection\": [\n    \"keep-alive\"\n  ],\n  \"x-powered-by\": [\n    \"Express\"\n  ],\n  \"access-control-allow-origin\": [\n    \"*\"\n  ],\n  \"etag\": [\n    \"W\/\\\"406-ut0vzoCuidvyMf8arZpMpJ6ZRDw\\\"\"\n  ],\n  \"via\": [\n    \"1.1 vegur\"\n  ],\n  \"Cache-Control\": [\n    \"max-age=14400\"\n  ],\n  \"CF-Cache-Status\": [\n    \"HIT\"\n  ],\n  \"Age\": [\n    \"1115\"\n  ],\n  \"Expect-CT\": [\n    \"max-age=604800, report-uri=\\\"https:\/\/report-uri.cloudflare.com\/cdn-cgi\/beacon\/expect-ct\\\"\"\n  ],\n  \"Report-To\": [\n    \"{\\\"endpoints\\\":[{\\\"url\\\":\\\"https:\\\\\/\\\\\/a.nel.cloudflare.com\\\\\/report\\\\\/v3?s=kHq8kTV0B9beyjq%2BsFDNRfDGFzV50MsWlyr7kGs3NRU0JfMCyOBuiuIZTGf97T23yl204fV4V8d0QgQx8bdhUNLDKu%2BUDLMx%2FITuWgiptTl0CgqFgsGdet3MPxk%3D\\\"}],\\\"group\\\":\\\"cf-nel\\\",\\\"max_age\\\":604800}\"\n  ],\n  \"NEL\": [\n    \"{\\\"success_fraction\\\":0,\\\"report_to\\\":\\\"cf-nel\\\",\\\"max_age\\\":604800}\"\n  ],\n  \"Vary\": [\n    \"Accept-Encoding\"\n  ],\n  \"Server\": [\n    \"cloudflare\"\n  ],\n  \"CF-RAY\": [\n    \"67d2150929f54c23-SIN\"\n  ],\n  \"alt-svc\": [\n    \"h3-27=\\\":443\\\"; ma=86400, h3-28=\\\":443\\\"; ma=86400, h3-29=\\\":443\\\"; ma=86400, h3=\\\":443\\\"; ma=86400\"\n  ]\n}\n \n"},{"result":{"nanos":1718400,"millis":1.7184,"status":"passed"},"step":{"line":25,"prefix":"And","index":8,"text":"print responseCookies"},"stepLog":"21:16:31.084 [print] null \n"}],"executorName":"main","line":16,"name":"Test a GET sample API 2","description":"","durationMillis":1201.7699,"startTime":1628691389869,"failed":false,"refId":"[2:16]","endTime":1628691391084,"exampleIndex":-1}],"callDepth":0,"name":"Sample API Test","description":"","resultDate":"2021-08-11 09:16:31 PM","durationMillis":1201.7699,"passedCount":1}