{"failedCount":0,"prefixedPath":"src\/test\/java\/tests\/feature1\/FirstTestFeature1.feature","packageQualifiedName":"src.test.java.tests.feature1.FirstTestFeature1","loopIndex":-1,"relativePath":"src\/test\/java\/tests\/feature1\/FirstTestFeature1.feature","scenarioResults":[{"sectionIndex":0,"stepResults":[{"result":{"nanos":48826200,"millis":48.8262,"status":"passed"},"step":{"background":true,"line":3,"prefix":"*","index":0,"text":"url \"https:\/\/reqres.in\""}},{"result":{"nanos":687700,"millis":0.6877,"status":"passed"},"step":{"background":true,"line":4,"prefix":"*","index":1,"text":"header Accept = \"application\/json\""}},{"result":{"nanos":72211400,"millis":72.2114,"status":"passed"},"step":{"background":true,"line":5,"prefix":"*","index":2,"text":"def expectedOutput = read(\"namaFileJSON.json\")"}},{"result":{"nanos":580000,"millis":0.58,"status":"passed"},"step":{"line":9,"prefix":"Given","index":0,"text":"url \"https:\/\/reqres.in\/api\/users?page=2\""}},{"result":{"nanos":1257080200,"millis":1257.0802,"status":"passed"},"step":{"line":10,"prefix":"When","index":1,"text":"method GET"},"stepLog":"22:14:49.229 request:\n1 > GET https:\/\/reqres.in\/api\/users?page=2\n1 > Accept: application\/json\n1 > Host: reqres.in\n1 > Connection: Keep-Alive\n1 > User-Agent: Apache-HttpClient\/4.5.13 (Java\/11.0.8)\n1 > Accept-Encoding: gzip,deflate\n\n\n22:14:50.113 response time in milliseconds: 882\n1 < 200\n1 < Date: Wed, 11 Aug 2021 15:14:50 GMT\n1 < Content-Type: application\/json; charset=utf-8\n1 < Transfer-Encoding: chunked\n1 < Connection: keep-alive\n1 < X-Powered-By: Express\n1 < Access-Control-Allow-Origin: *\n1 < Etag: W\/\"406-ut0vzoCuidvyMf8arZpMpJ6ZRDw\"\n1 < Via: 1.1 vegur\n1 < Cache-Control: max-age=14400\n1 < CF-Cache-Status: HIT\n1 < Age: 2474\n1 < Expect-CT: max-age=604800, report-uri=\"https:\/\/report-uri.cloudflare.com\/cdn-cgi\/beacon\/expect-ct\"\n1 < Report-To: {\"endpoints\":[{\"url\":\"https:\\\/\\\/a.nel.cloudflare.com\\\/report\\\/v3?s=DbDp5gtCIAu6a80dBReKxBPUhn3PW8s51%2BxxGtaUFfK2YZAcoH2qRafkdDS%2Fb%2Bd%2Bq0JOcLtLj09BcovNfRDBSsXp8pxR3LyDH%2FK7JmVC%2Fb%2BG48bS1%2Fv%2BSpYNqvs%3D\"}],\"group\":\"cf-nel\",\"max_age\":604800}\n1 < NEL: {\"success_fraction\":0,\"report_to\":\"cf-nel\",\"max_age\":604800}\n1 < Vary: Accept-Encoding\n1 < Server: cloudflare\n1 < CF-RAY: 67d26a767c501d77-NRT\n1 < alt-svc: h3-27=\":443\"; ma=86400, h3-28=\":443\"; ma=86400, h3-29=\":443\"; ma=86400, h3=\":443\"; ma=86400\n{\"page\":2,\"per_page\":6,\"total\":12,\"total_pages\":2,\"data\":[{\"id\":7,\"email\":\"michael.lawson@reqres.in\",\"first_name\":\"Michael\",\"last_name\":\"Lawson\",\"avatar\":\"https:\/\/reqres.in\/img\/faces\/7-image.jpg\"},{\"id\":8,\"email\":\"lindsay.ferguson@reqres.in\",\"first_name\":\"Lindsay\",\"last_name\":\"Ferguson\",\"avatar\":\"https:\/\/reqres.in\/img\/faces\/8-image.jpg\"},{\"id\":9,\"email\":\"tobias.funke@reqres.in\",\"first_name\":\"Tobias\",\"last_name\":\"Funke\",\"avatar\":\"https:\/\/reqres.in\/img\/faces\/9-image.jpg\"},{\"id\":10,\"email\":\"byron.fields@reqres.in\",\"first_name\":\"Byron\",\"last_name\":\"Fields\",\"avatar\":\"https:\/\/reqres.in\/img\/faces\/10-image.jpg\"},{\"id\":11,\"email\":\"george.edwards@reqres.in\",\"first_name\":\"George\",\"last_name\":\"Edwards\",\"avatar\":\"https:\/\/reqres.in\/img\/faces\/11-image.jpg\"},{\"id\":12,\"email\":\"rachel.howell@reqres.in\",\"first_name\":\"Rachel\",\"last_name\":\"Howell\",\"avatar\":\"https:\/\/reqres.in\/img\/faces\/12-image.jpg\"}],\"support\":{\"url\":\"https:\/\/reqres.in\/#support-heading\",\"text\":\"To keep ReqRes free, contributions towards server costs are appreciated!\"}}\n"},{"result":{"nanos":17500,"millis":0.0175,"status":"passed"},"step":{"line":11,"prefix":"Then","index":2,"text":"status 200"}},{"result":{"nanos":8503700,"millis":8.5037,"status":"passed"},"step":{"line":12,"prefix":"And","index":3,"text":"print response"},"stepLog":"22:14:50.123 [print] {\n  \"page\": 2,\n  \"per_page\": 6,\n  \"total\": 12,\n  \"total_pages\": 2,\n  \"data\": [\n    {\n      \"id\": 7,\n      \"email\": \"michael.lawson@reqres.in\",\n      \"first_name\": \"Michael\",\n      \"last_name\": \"Lawson\",\n      \"avatar\": \"https:\/\/reqres.in\/img\/faces\/7-image.jpg\"\n    },\n    {\n      \"id\": 8,\n      \"email\": \"lindsay.ferguson@reqres.in\",\n      \"first_name\": \"Lindsay\",\n      \"last_name\": \"Ferguson\",\n      \"avatar\": \"https:\/\/reqres.in\/img\/faces\/8-image.jpg\"\n    },\n    {\n      \"id\": 9,\n      \"email\": \"tobias.funke@reqres.in\",\n      \"first_name\": \"Tobias\",\n      \"last_name\": \"Funke\",\n      \"avatar\": \"https:\/\/reqres.in\/img\/faces\/9-image.jpg\"\n    },\n    {\n      \"id\": 10,\n      \"email\": \"byron.fields@reqres.in\",\n      \"first_name\": \"Byron\",\n      \"last_name\": \"Fields\",\n      \"avatar\": \"https:\/\/reqres.in\/img\/faces\/10-image.jpg\"\n    },\n    {\n      \"id\": 11,\n      \"email\": \"george.edwards@reqres.in\",\n      \"first_name\": \"George\",\n      \"last_name\": \"Edwards\",\n      \"avatar\": \"https:\/\/reqres.in\/img\/faces\/11-image.jpg\"\n    },\n    {\n      \"id\": 12,\n      \"email\": \"rachel.howell@reqres.in\",\n      \"first_name\": \"Rachel\",\n      \"last_name\": \"Howell\",\n      \"avatar\": \"https:\/\/reqres.in\/img\/faces\/12-image.jpg\"\n    }\n  ],\n  \"support\": {\n    \"url\": \"https:\/\/reqres.in\/#support-heading\",\n    \"text\": \"To keep ReqRes free, contributions towards server costs are appreciated!\"\n  }\n}\n \n"}],"executorName":"main","line":8,"name":"Test a GET sample API 1","description":"","durationMillis":1387.9067,"startTime":1628694888728,"failed":false,"refId":"[1:8]","endTime":1628694890124,"exampleIndex":-1},{"sectionIndex":1,"stepResults":[{"result":{"nanos":590600,"millis":0.5906,"status":"passed"},"step":{"background":true,"line":3,"prefix":"*","index":0,"text":"url \"https:\/\/reqres.in\""}},{"result":{"nanos":293200,"millis":0.2932,"status":"passed"},"step":{"background":true,"line":4,"prefix":"*","index":1,"text":"header Accept = \"application\/json\""}},{"result":{"nanos":1282000,"millis":1.282,"status":"passed"},"step":{"background":true,"line":5,"prefix":"*","index":2,"text":"def expectedOutput = read(\"namaFileJSON.json\")"}},{"result":{"nanos":410800,"millis":0.4108,"status":"passed"},"step":{"line":16,"prefix":"Given","index":0,"text":"path \"\/api\/users\""}},{"result":{"nanos":1065300,"millis":1.0653,"status":"passed"},"step":{"line":17,"prefix":"And","index":1,"text":"param page = 2"}},{"result":{"nanos":596408800,"millis":596.4088,"status":"passed"},"step":{"line":18,"prefix":"When","index":2,"text":"method GET"},"stepLog":"22:14:50.134 request:\n1 > GET https:\/\/reqres.in\/api\/users?page=2\n1 > Accept: application\/json\n1 > Host: reqres.in\n1 > Connection: Keep-Alive\n1 > User-Agent: Apache-HttpClient\/4.5.13 (Java\/11.0.8)\n1 > Accept-Encoding: gzip,deflate\n\n\n22:14:50.728 response time in milliseconds: 594\n1 < 200\n1 < Date: Wed, 11 Aug 2021 15:14:50 GMT\n1 < Content-Type: application\/json; charset=utf-8\n1 < Transfer-Encoding: chunked\n1 < Connection: keep-alive\n1 < x-powered-by: Express\n1 < access-control-allow-origin: *\n1 < etag: W\/\"406-ut0vzoCuidvyMf8arZpMpJ6ZRDw\"\n1 < via: 1.1 vegur\n1 < Cache-Control: max-age=14400\n1 < CF-Cache-Status: HIT\n1 < Age: 2332\n1 < Expect-CT: max-age=604800, report-uri=\"https:\/\/report-uri.cloudflare.com\/cdn-cgi\/beacon\/expect-ct\"\n1 < Report-To: {\"endpoints\":[{\"url\":\"https:\\\/\\\/a.nel.cloudflare.com\\\/report\\\/v3?s=ak%2B4MAMK%2BWq6%2FlzeC8Q4CSuSvyEEsP%2FAqHz5%2Bts%2FXXTHa73GQwP7qxMdcPzsSoPZv82ZJAtftlA81rvAoEmLV07DiDLixowQir8aQSrZkmDXzu1ia%2FKNewF9YKY%3D\"}],\"group\":\"cf-nel\",\"max_age\":604800}\n1 < NEL: {\"success_fraction\":0,\"report_to\":\"cf-nel\",\"max_age\":604800}\n1 < Vary: Accept-Encoding\n1 < Server: cloudflare\n1 < CF-RAY: 67d26a79fdf9fcdd-KIX\n1 < alt-svc: h3-27=\":443\"; ma=86400, h3-28=\":443\"; ma=86400, h3-29=\":443\"; ma=86400, h3=\":443\"; ma=86400\n{\"page\":2,\"per_page\":6,\"total\":12,\"total_pages\":2,\"data\":[{\"id\":7,\"email\":\"michael.lawson@reqres.in\",\"first_name\":\"Michael\",\"last_name\":\"Lawson\",\"avatar\":\"https:\/\/reqres.in\/img\/faces\/7-image.jpg\"},{\"id\":8,\"email\":\"lindsay.ferguson@reqres.in\",\"first_name\":\"Lindsay\",\"last_name\":\"Ferguson\",\"avatar\":\"https:\/\/reqres.in\/img\/faces\/8-image.jpg\"},{\"id\":9,\"email\":\"tobias.funke@reqres.in\",\"first_name\":\"Tobias\",\"last_name\":\"Funke\",\"avatar\":\"https:\/\/reqres.in\/img\/faces\/9-image.jpg\"},{\"id\":10,\"email\":\"byron.fields@reqres.in\",\"first_name\":\"Byron\",\"last_name\":\"Fields\",\"avatar\":\"https:\/\/reqres.in\/img\/faces\/10-image.jpg\"},{\"id\":11,\"email\":\"george.edwards@reqres.in\",\"first_name\":\"George\",\"last_name\":\"Edwards\",\"avatar\":\"https:\/\/reqres.in\/img\/faces\/11-image.jpg\"},{\"id\":12,\"email\":\"rachel.howell@reqres.in\",\"first_name\":\"Rachel\",\"last_name\":\"Howell\",\"avatar\":\"https:\/\/reqres.in\/img\/faces\/12-image.jpg\"}],\"support\":{\"url\":\"https:\/\/reqres.in\/#support-heading\",\"text\":\"To keep ReqRes free, contributions towards server costs are appreciated!\"}}\n"},{"result":{"nanos":5400,"millis":0.0054,"status":"passed"},"step":{"line":19,"prefix":"Then","index":3,"text":"status 200"}},{"result":{"nanos":951500,"millis":0.9515,"status":"passed"},"step":{"line":20,"prefix":"And","index":4,"text":"print responseStatus"},"stepLog":"22:14:50.730 [print] 200 \n"},{"result":{"nanos":538600,"millis":0.5386,"status":"passed"},"step":{"line":21,"prefix":"And","index":5,"text":"print responseTime"},"stepLog":"22:14:50.731 [print] 594 \n"},{"result":{"nanos":715300,"millis":0.7153,"status":"passed"},"step":{"line":22,"prefix":"And","index":6,"text":"print responseHeaders"},"stepLog":"22:14:50.731 [print] {\n  \"Date\": [\n    \"Wed, 11 Aug 2021 15:14:50 GMT\"\n  ],\n  \"Content-Type\": [\n    \"application\/json; charset=utf-8\"\n  ],\n  \"Transfer-Encoding\": [\n    \"chunked\"\n  ],\n  \"Connection\": [\n    \"keep-alive\"\n  ],\n  \"x-powered-by\": [\n    \"Express\"\n  ],\n  \"access-control-allow-origin\": [\n    \"*\"\n  ],\n  \"etag\": [\n    \"W\/\\\"406-ut0vzoCuidvyMf8arZpMpJ6ZRDw\\\"\"\n  ],\n  \"via\": [\n    \"1.1 vegur\"\n  ],\n  \"Cache-Control\": [\n    \"max-age=14400\"\n  ],\n  \"CF-Cache-Status\": [\n    \"HIT\"\n  ],\n  \"Age\": [\n    \"2332\"\n  ],\n  \"Expect-CT\": [\n    \"max-age=604800, report-uri=\\\"https:\/\/report-uri.cloudflare.com\/cdn-cgi\/beacon\/expect-ct\\\"\"\n  ],\n  \"Report-To\": [\n    \"{\\\"endpoints\\\":[{\\\"url\\\":\\\"https:\\\\\/\\\\\/a.nel.cloudflare.com\\\\\/report\\\\\/v3?s=ak%2B4MAMK%2BWq6%2FlzeC8Q4CSuSvyEEsP%2FAqHz5%2Bts%2FXXTHa73GQwP7qxMdcPzsSoPZv82ZJAtftlA81rvAoEmLV07DiDLixowQir8aQSrZkmDXzu1ia%2FKNewF9YKY%3D\\\"}],\\\"group\\\":\\\"cf-nel\\\",\\\"max_age\\\":604800}\"\n  ],\n  \"NEL\": [\n    \"{\\\"success_fraction\\\":0,\\\"report_to\\\":\\\"cf-nel\\\",\\\"max_age\\\":604800}\"\n  ],\n  \"Vary\": [\n    \"Accept-Encoding\"\n  ],\n  \"Server\": [\n    \"cloudflare\"\n  ],\n  \"CF-RAY\": [\n    \"67d26a79fdf9fcdd-KIX\"\n  ],\n  \"alt-svc\": [\n    \"h3-27=\\\":443\\\"; ma=86400, h3-28=\\\":443\\\"; ma=86400, h3-29=\\\":443\\\"; ma=86400, h3=\\\":443\\\"; ma=86400\"\n  ]\n}\n \n"},{"result":{"nanos":726100,"millis":0.7261,"status":"passed"},"step":{"line":23,"prefix":"And","index":7,"text":"print response"},"stepLog":"22:14:50.732 [print] {\n  \"page\": 2,\n  \"per_page\": 6,\n  \"total\": 12,\n  \"total_pages\": 2,\n  \"data\": [\n    {\n      \"id\": 7,\n      \"email\": \"michael.lawson@reqres.in\",\n      \"first_name\": \"Michael\",\n      \"last_name\": \"Lawson\",\n      \"avatar\": \"https:\/\/reqres.in\/img\/faces\/7-image.jpg\"\n    },\n    {\n      \"id\": 8,\n      \"email\": \"lindsay.ferguson@reqres.in\",\n      \"first_name\": \"Lindsay\",\n      \"last_name\": \"Ferguson\",\n      \"avatar\": \"https:\/\/reqres.in\/img\/faces\/8-image.jpg\"\n    },\n    {\n      \"id\": 9,\n      \"email\": \"tobias.funke@reqres.in\",\n      \"first_name\": \"Tobias\",\n      \"last_name\": \"Funke\",\n      \"avatar\": \"https:\/\/reqres.in\/img\/faces\/9-image.jpg\"\n    },\n    {\n      \"id\": 10,\n      \"email\": \"byron.fields@reqres.in\",\n      \"first_name\": \"Byron\",\n      \"last_name\": \"Fields\",\n      \"avatar\": \"https:\/\/reqres.in\/img\/faces\/10-image.jpg\"\n    },\n    {\n      \"id\": 11,\n      \"email\": \"george.edwards@reqres.in\",\n      \"first_name\": \"George\",\n      \"last_name\": \"Edwards\",\n      \"avatar\": \"https:\/\/reqres.in\/img\/faces\/11-image.jpg\"\n    },\n    {\n      \"id\": 12,\n      \"email\": \"rachel.howell@reqres.in\",\n      \"first_name\": \"Rachel\",\n      \"last_name\": \"Howell\",\n      \"avatar\": \"https:\/\/reqres.in\/img\/faces\/12-image.jpg\"\n    }\n  ],\n  \"support\": {\n    \"url\": \"https:\/\/reqres.in\/#support-heading\",\n    \"text\": \"To keep ReqRes free, contributions towards server costs are appreciated!\"\n  }\n}\n \n"},{"result":{"nanos":1073900,"millis":1.0739,"status":"passed"},"step":{"line":24,"prefix":"And","index":8,"text":"print responseCookies"},"stepLog":"22:14:50.733 [print] null \n"},{"result":{"nanos":14772200,"millis":14.7722,"status":"passed"},"step":{"line":25,"prefix":"And","index":9,"text":"match response.data[0].first_name != null"}},{"result":{"nanos":6193500,"millis":6.1935,"status":"passed"},"step":{"line":26,"prefix":"And","index":10,"text":"assert response.data.length == 6"}},{"result":{"nanos":947700,"millis":0.9477,"status":"passed"},"step":{"line":27,"prefix":"And","index":11,"text":"match $.data[1].id == 8"}},{"result":{"nanos":582200,"millis":0.5822,"status":"passed"},"step":{"line":28,"prefix":"And","index":12,"text":"match $.data[3].last_name == \"Fields\""}}],"executorName":"main","line":15,"name":"Test a GET sample API 2","description":"","durationMillis":626.5571,"startTime":1628694890129,"failed":false,"refId":"[2:15]","endTime":1628694890756,"exampleIndex":-1},{"sectionIndex":2,"stepResults":[{"result":{"nanos":166600,"millis":0.1666,"status":"passed"},"step":{"background":true,"line":3,"prefix":"*","index":0,"text":"url \"https:\/\/reqres.in\""}},{"result":{"nanos":137300,"millis":0.1373,"status":"passed"},"step":{"background":true,"line":4,"prefix":"*","index":1,"text":"header Accept = \"application\/json\""}},{"result":{"nanos":846500,"millis":0.8465,"status":"passed"},"step":{"background":true,"line":5,"prefix":"*","index":2,"text":"def expectedOutput = read(\"namaFileJSON.json\")"}},{"result":{"nanos":133700,"millis":0.1337,"status":"passed"},"step":{"line":32,"prefix":"Given","index":0,"text":"path \"\/api\/users\""}},{"result":{"nanos":327900,"millis":0.3279,"status":"passed"},"step":{"line":33,"prefix":"And","index":1,"text":"request {\"name\": \"Teguh\",\"job\": \"QA\"}"}},{"result":{"nanos":1292745700,"millis":1292.7457,"status":"passed"},"step":{"line":34,"prefix":"When","index":2,"text":"method Post"},"stepLog":"22:14:50.791 request:\n1 > POST https:\/\/reqres.in\/api\/users\n1 > Accept: application\/json\n1 > Content-Type: application\/json; charset=UTF-8\n1 > Content-Length: 27\n1 > Host: reqres.in\n1 > Connection: Keep-Alive\n1 > User-Agent: Apache-HttpClient\/4.5.13 (Java\/11.0.8)\n1 > Accept-Encoding: gzip,deflate\n{\"name\":\"Teguh\",\"job\":\"QA\"}\n\n22:14:52.054 response time in milliseconds: 1263\n1 < 201\n1 < Date: Wed, 11 Aug 2021 15:14:51 GMT\n1 < Content-Type: application\/json; charset=utf-8\n1 < Content-Length: 77\n1 < Connection: keep-alive\n1 < x-powered-by: Express\n1 < access-control-allow-origin: *\n1 < etag: W\/\"4d-2W2Hyp5TKZHFEOKitLXXz80RL8s\"\n1 < via: 1.1 vegur\n1 < CF-Cache-Status: DYNAMIC\n1 < Expect-CT: max-age=604800, report-uri=\"https:\/\/report-uri.cloudflare.com\/cdn-cgi\/beacon\/expect-ct\"\n1 < Report-To: {\"endpoints\":[{\"url\":\"https:\\\/\\\/a.nel.cloudflare.com\\\/report\\\/v3?s=jFx4CbaN6ifrZejt059CSx9W2%2FzFPAqeL3XPovF5FR4TtSiQhmpwZod32HhWNu7g1R%2BByw8t61Wb1TvCPG2EFFT4tRvn2MyfBQrtH9oSz3XN7DpPjhHFAK0Hfc0%3D\"}],\"group\":\"cf-nel\",\"max_age\":604800}\n1 < NEL: {\"success_fraction\":0,\"report_to\":\"cf-nel\",\"max_age\":604800}\n1 < Server: cloudflare\n1 < CF-RAY: 67d26a7e2e5eef92-NRT\n1 < alt-svc: h3-27=\":443\"; ma=86400, h3-28=\":443\"; ma=86400, h3-29=\":443\"; ma=86400, h3=\":443\"; ma=86400\n{\"name\":\"Teguh\",\"job\":\"QA\",\"id\":\"844\",\"createdAt\":\"2021-08-11T15:14:51.841Z\"}\n"},{"result":{"nanos":6300,"millis":0.0063,"status":"passed"},"step":{"line":35,"prefix":"Then","index":3,"text":"status 201"}},{"result":{"nanos":304000,"millis":0.304,"status":"passed"},"step":{"line":36,"prefix":"And","index":4,"text":"print responseStatus"},"stepLog":"22:14:52.055 [print] 201 \n"},{"result":{"nanos":163900,"millis":0.1639,"status":"passed"},"step":{"line":37,"prefix":"And","index":5,"text":"print responseTime"},"stepLog":"22:14:52.055 [print] 1263 \n"},{"result":{"nanos":320500,"millis":0.3205,"status":"passed"},"step":{"line":38,"prefix":"And","index":6,"text":"print responseHeaders"},"stepLog":"22:14:52.056 [print] {\n  \"Date\": [\n    \"Wed, 11 Aug 2021 15:14:51 GMT\"\n  ],\n  \"Content-Type\": [\n    \"application\/json; charset=utf-8\"\n  ],\n  \"Content-Length\": [\n    \"77\"\n  ],\n  \"Connection\": [\n    \"keep-alive\"\n  ],\n  \"x-powered-by\": [\n    \"Express\"\n  ],\n  \"access-control-allow-origin\": [\n    \"*\"\n  ],\n  \"etag\": [\n    \"W\/\\\"4d-2W2Hyp5TKZHFEOKitLXXz80RL8s\\\"\"\n  ],\n  \"via\": [\n    \"1.1 vegur\"\n  ],\n  \"CF-Cache-Status\": [\n    \"DYNAMIC\"\n  ],\n  \"Expect-CT\": [\n    \"max-age=604800, report-uri=\\\"https:\/\/report-uri.cloudflare.com\/cdn-cgi\/beacon\/expect-ct\\\"\"\n  ],\n  \"Report-To\": [\n    \"{\\\"endpoints\\\":[{\\\"url\\\":\\\"https:\\\\\/\\\\\/a.nel.cloudflare.com\\\\\/report\\\\\/v3?s=jFx4CbaN6ifrZejt059CSx9W2%2FzFPAqeL3XPovF5FR4TtSiQhmpwZod32HhWNu7g1R%2BByw8t61Wb1TvCPG2EFFT4tRvn2MyfBQrtH9oSz3XN7DpPjhHFAK0Hfc0%3D\\\"}],\\\"group\\\":\\\"cf-nel\\\",\\\"max_age\\\":604800}\"\n  ],\n  \"NEL\": [\n    \"{\\\"success_fraction\\\":0,\\\"report_to\\\":\\\"cf-nel\\\",\\\"max_age\\\":604800}\"\n  ],\n  \"Server\": [\n    \"cloudflare\"\n  ],\n  \"CF-RAY\": [\n    \"67d26a7e2e5eef92-NRT\"\n  ],\n  \"alt-svc\": [\n    \"h3-27=\\\":443\\\"; ma=86400, h3-28=\\\":443\\\"; ma=86400, h3-29=\\\":443\\\"; ma=86400, h3=\\\":443\\\"; ma=86400\"\n  ]\n}\n \n"},{"result":{"nanos":185200,"millis":0.1852,"status":"passed"},"step":{"line":39,"prefix":"And","index":7,"text":"print response"},"stepLog":"22:14:52.056 [print] {\n  \"name\": \"Teguh\",\n  \"job\": \"QA\",\n  \"id\": \"844\",\n  \"createdAt\": \"2021-08-11T15:14:51.841Z\"\n}\n \n"},{"result":{"nanos":142100,"millis":0.1421,"status":"passed"},"step":{"line":40,"prefix":"And","index":8,"text":"print responseCookies"},"stepLog":"22:14:52.056 [print] null \n"}],"executorName":"main","line":31,"name":"Test a Post sample API","description":"","durationMillis":1295.4797,"startTime":1628694890760,"failed":false,"refId":"[3:31]","endTime":1628694892056,"exampleIndex":-1},{"sectionIndex":3,"stepResults":[{"result":{"nanos":147100,"millis":0.1471,"status":"passed"},"step":{"background":true,"line":3,"prefix":"*","index":0,"text":"url \"https:\/\/reqres.in\""}},{"result":{"nanos":129400,"millis":0.1294,"status":"passed"},"step":{"background":true,"line":4,"prefix":"*","index":1,"text":"header Accept = \"application\/json\""}},{"result":{"nanos":790300,"millis":0.7903,"status":"passed"},"step":{"background":true,"line":5,"prefix":"*","index":2,"text":"def expectedOutput = read(\"namaFileJSON.json\")"}},{"result":{"nanos":98200,"millis":0.0982,"status":"passed"},"step":{"line":44,"prefix":"Given","index":0,"text":"path \"\/api\/users\""}},{"result":{"nanos":135700,"millis":0.1357,"status":"passed"},"step":{"line":45,"prefix":"And","index":1,"text":"request {\"name\": \"Hariyadi\",\"job\": \"QA Lead\"}"}},{"result":{"nanos":1016929900,"millis":1016.9299,"status":"passed"},"step":{"line":46,"prefix":"When","index":2,"text":"method Post"},"stepLog":"22:14:52.062 request:\n1 > POST https:\/\/reqres.in\/api\/users\n1 > Accept: application\/json\n1 > Content-Type: application\/json; charset=UTF-8\n1 > Content-Length: 35\n1 > Host: reqres.in\n1 > Connection: Keep-Alive\n1 > User-Agent: Apache-HttpClient\/4.5.13 (Java\/11.0.8)\n1 > Accept-Encoding: gzip,deflate\n{\"name\":\"Hariyadi\",\"job\":\"QA Lead\"}\n\n22:14:53.077 response time in milliseconds: 1015\n1 < 201\n1 < Date: Wed, 11 Aug 2021 15:14:52 GMT\n1 < Content-Type: application\/json; charset=utf-8\n1 < Content-Length: 85\n1 < Connection: keep-alive\n1 < x-powered-by: Express\n1 < access-control-allow-origin: *\n1 < etag: W\/\"55-3u6zk2hZohwIPpmSAaRvRe+TPGU\"\n1 < via: 1.1 vegur\n1 < CF-Cache-Status: DYNAMIC\n1 < Expect-CT: max-age=604800, report-uri=\"https:\/\/report-uri.cloudflare.com\/cdn-cgi\/beacon\/expect-ct\"\n1 < Report-To: {\"endpoints\":[{\"url\":\"https:\\\/\\\/a.nel.cloudflare.com\\\/report\\\/v3?s=ynd1Yaqgq%2FsHZluoQ28tiXxW00dSR2P6nMVrPqTs3SFL9PHqbVSaIGkZ1dnSG5RzWxQQom7uhYnjLdICkewFWJhH7sijJQ3kFJ9hch21aWV4oUbJZ1PJ5K2rzBU%3D\"}],\"group\":\"cf-nel\",\"max_age\":604800}\n1 < NEL: {\"success_fraction\":0,\"report_to\":\"cf-nel\",\"max_age\":604800}\n1 < Server: cloudflare\n1 < CF-RAY: 67d26a85e83820a1-NRT\n1 < alt-svc: h3-27=\":443\"; ma=86400, h3-28=\":443\"; ma=86400, h3-29=\":443\"; ma=86400, h3=\":443\"; ma=86400\n{\"name\":\"Hariyadi\",\"job\":\"QA Lead\",\"id\":\"790\",\"createdAt\":\"2021-08-11T15:14:52.852Z\"}\n"},{"result":{"nanos":6600,"millis":0.0066,"status":"passed"},"step":{"line":47,"prefix":"Then","index":3,"text":"status 201"}},{"result":{"nanos":318200,"millis":0.3182,"status":"passed"},"step":{"line":48,"prefix":"And","index":4,"text":"print responseStatus"},"stepLog":"22:14:53.078 [print] 201 \n"},{"result":{"nanos":193700,"millis":0.1937,"status":"passed"},"step":{"line":49,"prefix":"And","index":5,"text":"print responseTime"},"stepLog":"22:14:53.078 [print] 1015 \n"},{"result":{"nanos":475500,"millis":0.4755,"status":"passed"},"step":{"line":50,"prefix":"And","index":6,"text":"print responseHeaders"},"stepLog":"22:14:53.079 [print] {\n  \"Date\": [\n    \"Wed, 11 Aug 2021 15:14:52 GMT\"\n  ],\n  \"Content-Type\": [\n    \"application\/json; charset=utf-8\"\n  ],\n  \"Content-Length\": [\n    \"85\"\n  ],\n  \"Connection\": [\n    \"keep-alive\"\n  ],\n  \"x-powered-by\": [\n    \"Express\"\n  ],\n  \"access-control-allow-origin\": [\n    \"*\"\n  ],\n  \"etag\": [\n    \"W\/\\\"55-3u6zk2hZohwIPpmSAaRvRe+TPGU\\\"\"\n  ],\n  \"via\": [\n    \"1.1 vegur\"\n  ],\n  \"CF-Cache-Status\": [\n    \"DYNAMIC\"\n  ],\n  \"Expect-CT\": [\n    \"max-age=604800, report-uri=\\\"https:\/\/report-uri.cloudflare.com\/cdn-cgi\/beacon\/expect-ct\\\"\"\n  ],\n  \"Report-To\": [\n    \"{\\\"endpoints\\\":[{\\\"url\\\":\\\"https:\\\\\/\\\\\/a.nel.cloudflare.com\\\\\/report\\\\\/v3?s=ynd1Yaqgq%2FsHZluoQ28tiXxW00dSR2P6nMVrPqTs3SFL9PHqbVSaIGkZ1dnSG5RzWxQQom7uhYnjLdICkewFWJhH7sijJQ3kFJ9hch21aWV4oUbJZ1PJ5K2rzBU%3D\\\"}],\\\"group\\\":\\\"cf-nel\\\",\\\"max_age\\\":604800}\"\n  ],\n  \"NEL\": [\n    \"{\\\"success_fraction\\\":0,\\\"report_to\\\":\\\"cf-nel\\\",\\\"max_age\\\":604800}\"\n  ],\n  \"Server\": [\n    \"cloudflare\"\n  ],\n  \"CF-RAY\": [\n    \"67d26a85e83820a1-NRT\"\n  ],\n  \"alt-svc\": [\n    \"h3-27=\\\":443\\\"; ma=86400, h3-28=\\\":443\\\"; ma=86400, h3-29=\\\":443\\\"; ma=86400, h3=\\\":443\\\"; ma=86400\"\n  ]\n}\n \n"},{"result":{"nanos":207900,"millis":0.2079,"status":"passed"},"step":{"line":51,"prefix":"And","index":7,"text":"print response"},"stepLog":"22:14:53.079 [print] {\n  \"name\": \"Hariyadi\",\n  \"job\": \"QA Lead\",\n  \"id\": \"790\",\n  \"createdAt\": \"2021-08-11T15:14:52.852Z\"\n}\n \n"},{"result":{"nanos":518300,"millis":0.5183,"status":"passed"},"step":{"line":52,"prefix":"And","index":8,"text":"print responseCookies"},"stepLog":"22:14:53.079 [print] null \n"},{"result":{"nanos":514800,"millis":0.5148,"status":"passed"},"step":{"line":53,"prefix":"And","index":9,"text":"match response == {\"name\": \"Hariyadi\",\"job\": \"QA Lead\",\"id\":\"#string\",\"createdAt\": \"#ignore\"}"}}],"executorName":"main","line":43,"name":"Test a Post sample API 1","description":"","durationMillis":1020.4656,"startTime":1628694892059,"failed":false,"refId":"[4:43]","endTime":1628694893080,"exampleIndex":-1},{"sectionIndex":4,"stepResults":[{"result":{"nanos":145800,"millis":0.1458,"status":"passed"},"step":{"background":true,"line":3,"prefix":"*","index":0,"text":"url \"https:\/\/reqres.in\""}},{"result":{"nanos":153900,"millis":0.1539,"status":"passed"},"step":{"background":true,"line":4,"prefix":"*","index":1,"text":"header Accept = \"application\/json\""}},{"result":{"nanos":787800,"millis":0.7878,"status":"passed"},"step":{"background":true,"line":5,"prefix":"*","index":2,"text":"def expectedOutput = read(\"namaFileJSON.json\")"}},{"result":{"nanos":126400,"millis":0.1264,"status":"passed"},"step":{"line":57,"prefix":"Given","index":0,"text":"path \"\/api\/users\""}},{"result":{"nanos":150800,"millis":0.1508,"status":"passed"},"step":{"line":58,"prefix":"And","index":1,"text":"request {\"name\": \"Hariyadi\",\"job\": \"QA Lead\"}"}},{"result":{"nanos":1033137800,"millis":1033.1378,"status":"passed"},"step":{"line":59,"prefix":"When","index":2,"text":"method Post"},"stepLog":"22:14:53.086 request:\n1 > POST https:\/\/reqres.in\/api\/users\n1 > Accept: application\/json\n1 > Content-Type: application\/json; charset=UTF-8\n1 > Content-Length: 35\n1 > Host: reqres.in\n1 > Connection: Keep-Alive\n1 > User-Agent: Apache-HttpClient\/4.5.13 (Java\/11.0.8)\n1 > Accept-Encoding: gzip,deflate\n{\"name\":\"Hariyadi\",\"job\":\"QA Lead\"}\n\n22:14:54.117 response time in milliseconds: 1031\n1 < 201\n1 < Date: Wed, 11 Aug 2021 15:14:54 GMT\n1 < Content-Type: application\/json; charset=utf-8\n1 < Content-Length: 85\n1 < Connection: keep-alive\n1 < x-powered-by: Express\n1 < access-control-allow-origin: *\n1 < etag: W\/\"55-6GUY8rW349HWwgIEHh6DDj8A7OA\"\n1 < via: 1.1 vegur\n1 < CF-Cache-Status: DYNAMIC\n1 < Expect-CT: max-age=604800, report-uri=\"https:\/\/report-uri.cloudflare.com\/cdn-cgi\/beacon\/expect-ct\"\n1 < Report-To: {\"endpoints\":[{\"url\":\"https:\\\/\\\/a.nel.cloudflare.com\\\/report\\\/v3?s=a7EON1z0WSBvIQDWD%2F7aLcnYYe5iJPaS7g0pVKFf9MDD30OKZ3WCOsz%2FqC6p3OAf6X5Gn3knd%2Btoi3XTIRq46loYAP6trtWR2tFynPPt4Gu35W2NpAeKcg5Yt9s%3D\"}],\"group\":\"cf-nel\",\"max_age\":604800}\n1 < NEL: {\"success_fraction\":0,\"report_to\":\"cf-nel\",\"max_age\":604800}\n1 < Server: cloudflare\n1 < CF-RAY: 67d26a8c5b672062-NRT\n1 < alt-svc: h3-27=\":443\"; ma=86400, h3-28=\":443\"; ma=86400, h3-29=\":443\"; ma=86400, h3=\":443\"; ma=86400\n{\"name\":\"Hariyadi\",\"job\":\"QA Lead\",\"id\":\"810\",\"createdAt\":\"2021-08-11T15:14:53.890Z\"}\n"},{"result":{"nanos":7400,"millis":0.0074,"status":"passed"},"step":{"line":60,"prefix":"Then","index":3,"text":"status 201"}},{"result":{"nanos":349700,"millis":0.3497,"status":"passed"},"step":{"line":61,"prefix":"And","index":4,"text":"print responseStatus"},"stepLog":"22:14:54.118 [print] 201 \n"},{"result":{"nanos":209200,"millis":0.2092,"status":"passed"},"step":{"line":62,"prefix":"And","index":5,"text":"print responseTime"},"stepLog":"22:14:54.118 [print] 1031 \n"},{"result":{"nanos":345400,"millis":0.3454,"status":"passed"},"step":{"line":63,"prefix":"And","index":6,"text":"print responseHeaders"},"stepLog":"22:14:54.119 [print] {\n  \"Date\": [\n    \"Wed, 11 Aug 2021 15:14:54 GMT\"\n  ],\n  \"Content-Type\": [\n    \"application\/json; charset=utf-8\"\n  ],\n  \"Content-Length\": [\n    \"85\"\n  ],\n  \"Connection\": [\n    \"keep-alive\"\n  ],\n  \"x-powered-by\": [\n    \"Express\"\n  ],\n  \"access-control-allow-origin\": [\n    \"*\"\n  ],\n  \"etag\": [\n    \"W\/\\\"55-6GUY8rW349HWwgIEHh6DDj8A7OA\\\"\"\n  ],\n  \"via\": [\n    \"1.1 vegur\"\n  ],\n  \"CF-Cache-Status\": [\n    \"DYNAMIC\"\n  ],\n  \"Expect-CT\": [\n    \"max-age=604800, report-uri=\\\"https:\/\/report-uri.cloudflare.com\/cdn-cgi\/beacon\/expect-ct\\\"\"\n  ],\n  \"Report-To\": [\n    \"{\\\"endpoints\\\":[{\\\"url\\\":\\\"https:\\\\\/\\\\\/a.nel.cloudflare.com\\\\\/report\\\\\/v3?s=a7EON1z0WSBvIQDWD%2F7aLcnYYe5iJPaS7g0pVKFf9MDD30OKZ3WCOsz%2FqC6p3OAf6X5Gn3knd%2Btoi3XTIRq46loYAP6trtWR2tFynPPt4Gu35W2NpAeKcg5Yt9s%3D\\\"}],\\\"group\\\":\\\"cf-nel\\\",\\\"max_age\\\":604800}\"\n  ],\n  \"NEL\": [\n    \"{\\\"success_fraction\\\":0,\\\"report_to\\\":\\\"cf-nel\\\",\\\"max_age\\\":604800}\"\n  ],\n  \"Server\": [\n    \"cloudflare\"\n  ],\n  \"CF-RAY\": [\n    \"67d26a8c5b672062-NRT\"\n  ],\n  \"alt-svc\": [\n    \"h3-27=\\\":443\\\"; ma=86400, h3-28=\\\":443\\\"; ma=86400, h3-29=\\\":443\\\"; ma=86400, h3=\\\":443\\\"; ma=86400\"\n  ]\n}\n \n"},{"result":{"nanos":199200,"millis":0.1992,"status":"passed"},"step":{"line":64,"prefix":"And","index":7,"text":"print response"},"stepLog":"22:14:54.119 [print] {\n  \"name\": \"Hariyadi\",\n  \"job\": \"QA Lead\",\n  \"id\": \"810\",\n  \"createdAt\": \"2021-08-11T15:14:53.890Z\"\n}\n \n"},{"result":{"nanos":188500,"millis":0.1885,"status":"passed"},"step":{"line":65,"prefix":"And","index":8,"text":"print responseCookies"},"stepLog":"22:14:54.119 [print] null \n"},{"result":{"nanos":302800,"millis":0.3028,"status":"passed"},"step":{"line":66,"prefix":"And","index":9,"text":"match response == expectedOutput"}}],"executorName":"main","line":56,"name":"Test a Post sample API 2","description":"","durationMillis":1036.1047,"startTime":1628694893083,"failed":false,"refId":"[5:56]","endTime":1628694894120,"exampleIndex":-1}],"callDepth":0,"name":"Sample API Test","description":"","resultDate":"2021-08-11 10:14:54 PM","durationMillis":5366.5138,"passedCount":5}